<?xml version="1.0" standalone="no"?>
<!DOCTYPE svg PUBLIC "-//W3C//DTD SVG 20010904//EN"
 "http://www.w3.org/TR/2001/REC-SVG-20010904/DTD/svg10.dtd">
<svg version="1.0" xmlns="http://www.w3.org/2000/svg"
 width="112.000000pt" height="112.000000pt" viewBox="0 0 112.000000 112.000000"
 preserveAspectRatio="xMidYMid meet">
<metadata>
Created by potrace 1.11, written by Peter Selinger 2001-2013
</metadata>
<g transform="translate(0.000000,112.000000) scale(0.100000,-0.100000)"
fill="#000000" stroke="none">
<path d="M559 1025 c-1 -6 -3 -55 -4 -110 -3 -139 -1 -132 -29 -106 -15 14
-42 25 -69 28 -141 16 -255 -125 -206 -254 5 -15 69 -87 142 -160 96 -97 138
-133 155 -133 15 0 78 41 168 107 l143 108 -41 75 c-23 41 -52 93 -63 115 -12
22 -32 57 -44 78 -12 21 -39 70 -61 108 -22 39 -40 73 -40 75 0 11 -50 78 -51
69z"/>
</g>
</svg>
